{
    "presets": [
        "@babel/preset-env",
        "@babel/preset-react",
        "@babel/preset-typescript"
    ],
    "compact": true,
    "plugins": [
        "@babel/plugin-proposal-class-properties",
        "@babel/plugin-transform-async-to-generator",
        "@babel/transform-arrow-functions",
        "@babel/proposal-object-rest-spread",
        [
            "@babel/plugin-transform-runtime",
            {
                "regenerator": true
            }
        ]
    ]
}
